[
  {
    "name": "AADclientID",
    "value": "3fbee5b0-f790-412e-b322-3cba3f9ab83c",
    "slotSetting": false
  },
  {
    "name": "AADclientSecret",
    "value": ">U9xW\"o2p)tj8I5#6(Sfn&)6",
    "slotSetting": false
  },
  {
    "name": "APPINSIGHTS_INSTRUMENTATIONKEY",
    "value": "8ed1e63e-e328-4032-ac9c-b6e8c29e2873",
    "slotSetting": true
  },
  {
    "name": "APPINSIGHTS_PROFILERFEATURE_VERSION",
    "value": "disabled",
    "slotSetting": true
  },
  {
    "name": "APPINSIGHTS_SNAPSHOTFEATURE_VERSION",
    "value": "disabled",
    "slotSetting": true
  },
  {
    "name": "AppInsightsInstrumentationKey",
    "value": "8ed1e63e-e328-4032-ac9c-b6e8c29e2873",
    "slotSetting": true
  },
  {
    "name": "ApplicationInsightsAgent_EXTENSION_VERSION",
    "value": "~2",
    "slotSetting": true
  },
  {
    "name": "AssetUIBackendHost",
    "value": "cargotracer-backend-qa.azurewebsites.net",
    "slotSetting": false
  },
  {
    "name": "DeliveryUIDeviceHost",
    "value": "cargotracer-backend-qa.azurewebsites.net",
    "slotSetting": false
  },
  {
    "name": "destroySessionUrl",
    "value": "https://login.microsoftonline.com/bpwinnolabbpwqa.onmicrosoft.com/oauth2/v2.0/logout?p=b2c_1_signin&post_logout_redirect_uri=https://ui-cargotracer-qa.azurewebsites.net",
    "slotSetting": false
  },
  {
    "name": "DIAGNOSTICS_AZUREBLOBCONTAINERSASURL",
    "value": "https://innolabdev0logging.blob.core.windows.net/cosmosdb?sv=2015-04-05&sr=c&sig=Lp9EZ6c9fZ60J532fxycC6QgAcV11D3tLIHPSFzu1Ag%3D&st=2018-07-15T17:57:19Z&se=2218-07-15T17:57:19Z&sp=rwdl",
    "slotSetting": false
  },
  {
    "name": "DIAGNOSTICS_AZUREBLOBRETENTIONINDAYS",
    "value": "5",
    "slotSetting": false
  },
  {
    "name": "DiagnosticServices_EXTENSION_VERSION",
    "value": "disabled",
    "slotSetting": true
  },
  {
    "name": "environment",
    "value": "qa",
    "slotSetting": false
  },
  {
    "name": "IdentityMetadata",
    "value": "https://login.microsoftonline.com/bpwinnolabbpwqa.onmicrosoft.com/v2.0/.well-known/openid-configuration",
    "slotSetting": false
  },
  {
    "name": "InstrumentationEngine_EXTENSION_VERSION",
    "value": "disabled",
    "slotSetting": true
  },
  {
    "name": "OIDConfigRedirectUrl",
    "value": "https://ui-cargotracer-qa.azurewebsites.net/auth/openid/return",
    "slotSetting": false
  },
  {
    "name": "SnapshotDebugger_EXTENSION_VERSION",
    "value": "disabled",
    "slotSetting": true
  },
  {
    "name": "TrackingUIDeviceHost",
    "value": "cargotracer-backend-qa.azurewebsites.net",
    "slotSetting": false
  },
  {
    "name": "UserApiClientKey",
    "value": "23b4d61746844a2c9331289ebf7f77da",
    "slotSetting": false
  },
  {
    "name": "UserApiHost",
    "value": "cargotracer-backend-qa.azurewebsites.net",
    "slotSetting": false
  },
  {
    "name": "UserAzureApiHost",
    "value": "trackingbpwuserapi-qa.azurewebsites.net",
    "slotSetting": false
  },
  {
    "name": "WEBSITE_HTTPLOGGING_RETENTION_DAYS",
    "value": "7",
    "slotSetting": false
  },
  {
    "name": "WEBSITE_NODE_DEFAULT_VERSION",
    "value": "6.9.1",
    "slotSetting": false
  },
  {
    "name": "WEBSITE_PROACTIVE_AUTOHEAL_ENABLED",
    "value": "False",
    "slotSetting": false
  },
  {
    "name": "XDT_MicrosoftApplicationInsights_BaseExtensions",
    "value": "disabled",
    "slotSetting": true
  },
  {
    "name": "XDT_MicrosoftApplicationInsights_Mode",
    "value": "default",
    "slotSetting": true
  }
]
