<?xml version="1.0" encoding="utf-8"?>
<!-- Generator: Adobe Illustrator 22.0.1, SVG Export Plug-In . SVG Version: 6.00 Build 0)  -->
<svg version="1.1" xmlns="http://www.w3.org/2000/svg" xmlns:xlink="http://www.w3.org/1999/xlink" x="0px" y="0px"
	 viewBox="0 0 400 400" style="enable-background:new 0 0 400 400;" xml:space="preserve">
<style type="text/css">
	.st0{opacity:0.45;}
	.st1{fill:#B2B2B2;}
	.st2{display:none;fill:#00A0D7;}
	.st3{display:none;}
	.st4{display:inline;fill:#00A0D7;}
	.st5{fill:#00A0D7;}
	.st6{display:inline;fill:#FF736B;}
	.st7{display:inline;fill:#FFFFFF;}
	.st8{display:inline;}
	.st9{fill:#FF0000;}
	.st10{fill:none;stroke:#FFFFFF;stroke-width:5;stroke-miterlimit:10;}
	.st11{fill:#FFFFFF;}
</style>
<g id="Raster_1_">
	<g id="Raster" class="st0">
		<g id="Icons_Raster">
			<g>
				<path class="st1" d="M200,0.8c26.9,0,53,5.3,77.6,15.7c23.7,10,45,24.4,63.3,42.7s32.7,39.6,42.7,63.3
					c10.4,24.6,15.7,50.7,15.7,77.6s-5.3,53-15.7,77.6c-10,23.7-24.4,45-42.7,63.3c-18.3,18.3-39.6,32.7-63.3,42.7
					C253,394,226.9,399.2,200,399.2s-53-5.3-77.6-15.7c-23.7-10-45-24.4-63.3-42.7c-18.3-18.3-32.7-39.6-42.7-63.3
					C6,253,0.8,226.9,0.8,200s5.3-53,15.7-77.6c10-23.7,24.4-45,42.7-63.3s39.6-32.7,63.3-42.7C147,6,173.1,0.8,200,0.8 M200,0
					C89.5,0,0,89.5,0,200s89.5,200,200,200s200-89.5,200-200S310.5,0,200,0L200,0z"/>
			</g>
			<g>
				<path class="st1" d="M200,50.8c39.9,0,77.3,15.5,105.5,43.7s43.7,65.7,43.7,105.5s-15.5,77.3-43.7,105.5s-65.7,43.7-105.5,43.7
					s-77.3-15.5-105.5-43.7S50.8,239.9,50.8,200s15.5-77.3,43.7-105.5S160.1,50.8,200,50.8 M200,50c-82.8,0-150,67.2-150,150
					s67.2,150,150,150s150-67.2,150-150S282.8,50,200,50L200,50z"/>
			</g>
			<g>
				<path class="st1" d="M200,100.8c54.7,0,99.2,44.5,99.2,99.2s-44.5,99.2-99.2,99.2s-99.2-44.5-99.2-99.2S145.3,100.8,200,100.8
					 M200,100c-55.2,0-100,44.8-100,100s44.8,100,100,100s100-44.8,100-100S255.2,100,200,100L200,100z"/>
			</g>
			<g>
				<path class="st1" d="M349.2,50.8v298.5H50.8V50.8H349.2 M350,50H50v300h300V50L350,50z"/>
			</g>
			<polygon class="st1" points="200.5,-0.7 199.5,-0.7 199.5,399.3 200.5,399.3 			"/>
			<polygon class="st1" points="400,199.8 400,198.8 0,198.8 0,199.8 			"/>
			<g>
				<polygon class="st1" points="400.4,0.6 399.4,-0.4 -0.4,399.4 0.6,400.4 				"/>
				<polygon class="st1" points="399.4,400.4 400.4,399.4 0.6,-0.4 -0.4,0.6 				"/>
			</g>
		</g>
	</g>
</g>
<g id="Ebene_1">
	<path id="Handling_Unit" class="st2" d="M358.6,125.4l-9.4-14L200,60.7L50.8,111.4l-9.4,14v154.1l149.1,59.9h19l149.1-59.9V125.4
		L358.6,125.4L358.6,125.4z M255.5,277.2l-0.3-110.3l-45.7,18.4v143.5h-19V185.3L50.6,129.1l10.1-13.7l139.3,56l41.4-16.7l-0.8-0.7
		l-102.4-42.7L200,89.9l100.4,40.5l0.5,0.4l36.9-14.9l10,13.8L314.7,143l0.1,112L255.5,277.2z"/>
	<g id="Delivery_1_" class="st3">
		<path class="st4" d="M204.7,155.7H42.3c-5.5,0-10-4.5-10-10s4.5-10,10-10h162.4c5.5,0,10,4.5,10,10S210.2,155.7,204.7,155.7z"/>
		<path class="st4" d="M174.1,191H11.6c-5.5,0-10-4.5-10-10s4.5-10,10-10H174c5.5,0,10,4.5,10,10S179.6,191,174.1,191z"/>
		<path class="st4" d="M159.9,225.7H48c-5.5,0-10-4.5-10-10s4.5-10,10-10h111.9c5.5,0,10,4.5,10,10S165.4,225.7,159.9,225.7z"/>
		<path class="st4" d="M398.3,274.3l-0.4-83.9l-5.4-65l-0.1-1c-3.8-20-18.1-31.3-43.9-34.5l-53.8-7.2c-5.6-1.7-29.2-8.6-41.7-8.6
			H79.6c-17.9,0-32.4,14.5-32.4,32.4v0.3h19.9v-0.3c0-6.9,5.6-12.5,12.5-12.5H253c3.2,0,8.2,0.8,13.6,2v79.5c0,5.5,4.5,10,10,10
			s10-4.5,10-10v-74.4c1.2,0.3,4.2,1.3,4.2,1.3l71.1,7.4c4.8,2.6,9.3,10.1,10.9,18l4.2,51.3l-44.4-7c-1.3-0.3-2.4-1.4-2.6-2.7
			l-5.9-33c-1-5.4-6.1-9-11.5-8.1c-5.4,1-9,6.1-8.1,11.5l5.8,32.5c1.4,9.5,8.7,17.3,18.2,19.3l49.6,8.1l0.3,75.4v0.8
			c0,0.1,0,0.2-0.1,0.3S378,276,378,276h-20.6c-4.2-18.1-20.4-31.7-39.8-31.7S282,257.9,277.8,276h-44
			c-4.2-18.1-20.4-31.7-39.8-31.7c-16.7,0-31,10-37.4,24.3c-6.4-14.3-20.7-24.3-37.4-24.3c-19.4,0-35.6,13.6-39.8,31.7h0.1
			c-6.9,0-12.5-5.6-12.5-12.5v-7H47.2v7c0,17.9,14.5,32.4,32.4,32.4h0.3c4.7,17.3,20.6,30.1,39.4,30.1c16.7,0,31-10,37.4-24.3
			C163,316,177.3,326,194,326c18.8,0,34.7-12.8,39.4-30.1h44.8c4.7,17.3,20.6,30.1,39.4,30.1s34.7-12.8,39.4-30.1h21
			c5.7,0,11.1-2.4,15-6.6C396.7,285.3,398.6,279.8,398.3,274.3z M119.3,306.1c-11.6,0-20.9-9.4-20.9-20.9s9.4-20.9,20.9-20.9
			s20.9,9.4,20.9,20.9S130.8,306.1,119.3,306.1z M194,306.1c-11.6,0-20.9-9.4-20.9-20.9s9.4-20.9,20.9-20.9s20.9,9.4,20.9,20.9
			S205.5,306.1,194,306.1z M317.6,306.1c-11.5,0-20.9-9.4-20.9-20.9s9.4-20.9,20.9-20.9s20.9,9.4,20.9,20.9S329.2,306.1,317.6,306.1
			z"/>
	</g>
	<path id="Geofence" class="st2" d="M200,26.2C104,26.2,26.2,104,26.2,200S104,373.8,200,373.8S373.8,296,373.8,200
		S296,26.2,200,26.2z M200,349.3c-82.4,0-149.3-66.8-149.3-149.3c0-82.4,66.8-149.3,149.3-149.3c36.8,0,70.5,13.3,96.5,35.4
		l-41.1,41.1c-15.4-11.7-34.6-18.7-55.4-18.7c-10.5,0-20.5,1.8-29.9,5c-3.8-2.5-8.4-4-13.4-4c-13.5,0-24.5,11-24.5,24.5
		c0,1.4,0.1,2.7,0.4,4.1c-15,16.3-24.1,38-24.1,61.9c0,50.5,41,91.5,91.5,91.5c21.1,0,40.5-7.2,55.9-19.1c0.2-0.1,0.4-0.3,0.6-0.5
		c0.1-0.1,0.2-0.1,0.2-0.2l0,0c2.6-2.2,4.2-5.5,4.2-9.2c0-6.8-5.5-12.3-12.3-12.3c-3.2,0-6.1,1.2-8.3,3.2l0,0
		c-11.2,8.5-25.2,13.6-40.4,13.6c-37,0-67-30-67-67c0-16.3,5.8-31.2,15.5-42.9c2.6,0.9,5.3,1.5,8.2,1.5c13,0,23.6-10.1,24.4-22.9
		c6-1.7,12.3-2.7,18.8-2.7c14.1,0,27.1,4.4,37.9,11.8L191,191.5c-4.8,4.8-4.8,12.5,0,17.3c2.4,2.4,5.5,3.6,8.7,3.6
		c3.1,0,6.3-1.2,8.7-3.6l105.3-105.3c22.1,26,35.4,59.7,35.4,96.5C349.3,282.4,282.4,349.3,200,349.3z"/>
	<path class="st5" d="M200.5,14.3C117.9,14.3,51,81.2,51,163.8c0,44.5,17.2,83.4,45.7,111.9l103.8,99.2l103.8-99.2
		c29.1-29.1,45.7-67.4,45.7-111.9C350,81.2,283.1,14.3,200.5,14.3z M200.5,244.7c-44.7,0-81-36.2-81-81s36.2-81,81-81s81,36.2,81,81
		S245.2,244.7,200.5,244.7z"/>
	<g id="Ziel" class="st3">
		<path class="st4" d="M200,99.7c55.2,0,100.1,44.9,100.1,100.1S255.2,299.9,200,299.9S99.9,255,99.9,199.8S144.8,99.7,200,99.7
			 M200,76.7c-68,0-123.1,55.1-123.1,123.1S132,322.9,200,322.9s123.1-55.1,123.1-123.1S268,76.7,200,76.7L200,76.7z"/>
		<circle class="st4" cx="200" cy="199.8" r="82.6"/>
	</g>
	<path class="st2" d="M334.7,51.1c0,0-34.3,13.8-84.1,19.5c-57,6.6-80.8-7.3-137.7,0.8S27.1,98.9,27.1,98.9l36.5,207.2l0,0l9,50.8
		c0.9,4.9,5.5,8.1,10.4,7.3l4.2-0.7c4.9-0.9,8.1-5.5,7.3-10.4l-10.1-57.3c14.4-5.9,36.1-13,65.2-17.2c56.9-8.1,80.4,4.8,137.5-1.8
		c49.8-5.7,84.1-19.5,84.1-19.5L334.7,51.1z M136.6,202.4c-47.2,6.8-62.1,18-69.6,22.3L57.9,175c4.1-2.5,17.9-15.3,68.3-22.6
		c26.1-3.8,40-2.8,59.2-1.2l10.2,49.8C177.2,199.6,162.6,198.7,136.6,202.4z M196,89.2c20,1.7,34,2.7,61.9-0.7
		c42.1-5,62.9-14,62.9-14l8.7,51.8c-6.2,2.5-23.2,9.4-65.8,14.4c-27.3,3.2-58.3-0.2-59.1-0.3L196,89.2z M226.3,261l-8.7-51.4
		c0.4,0,30,2.4,57.7-0.9c8.4-1,16.2-2.1,23.3-3.4c28.3-5,36.4-8.5,42.8-10.9l8.6,50c0,0-13.9,11.3-62.9,17
		C259.3,264.6,246.3,262.7,226.3,261z"/>
	<path class="st2" d="M341.5,43.2c0,0-36,14.5-88.3,20.5c-59.9,6.9-84.9-7.7-144.6,0.8S18.4,93.4,18.4,93.4l38.3,217.6l0,0l9.5,53.4
		c0.9,5.1,5.8,8.5,10.9,7.7l10.7-1.8c5.1-0.9,8.5-5.8,7.7-10.9l-10.6-60.2c15.1-6.2,31.6-12.6,62.2-17c59.8-8.5,84.5,5,144.4-1.9
		c52.3-6,88.3-20.5,88.3-20.5L341.5,43.2z M131,179.7c-47.2,6.8-62.1,18-69.6,22.3l-15.8-89c4.1-2.5,17.9-15.3,68.3-22.6
		c26.1-3.8,40-2.8,59.2-1.2l16.9,89.1C171.6,176.9,157,176,131,179.7z M226.3,261l-14.4-84.2c0.4,0,30,2.4,57.7-0.9
		c8.4-1,16.2-2.1,23.3-3.4c28.3-5,36.4-8.5,42.8-10.9l14.3,82.8c0,0-13.9,11.3-62.9,17C259.3,264.6,246.3,262.7,226.3,261z"/>
	<path class="st2" d="M192.9,46.7l-80.4,80.4c-0.8,0.8-1.4,1.6-1.8,2.5c-1,1.6-1.7,3.5-1.7,5.5v156c0,5.5,4.5,10,10,10h162
		c5.5,0,10-4.5,10-10v-156c0-2-0.6-3.9-1.7-5.5c-0.5-0.9-1.1-1.8-1.8-2.5l-80.4-80.4C203.2,42.8,196.8,42.8,192.9,46.7z"/>
	<g class="st3">
		<path class="st6" d="M353.7,193l-80.4-80.4c-0.8-0.8-1.6-1.4-2.5-1.8c-1.6-1-3.5-1.7-5.5-1.7H54.4c-5.5,0-10,4.5-10,10v162
			c0,5.5,4.5,10,10,10h210.8c2,0,3.9-0.6,5.5-1.7c0.9-0.5,1.8-1.1,2.5-1.8l80.4-80.4C357.5,203.2,357.5,196.9,353.7,193z"/>
		<path class="st7" d="M178.4,143.6c0,0-12.4,5-30.3,7c-20.6,2.4-29.1-2.6-49.7,0.3c-20.5,2.9-30.9,9.9-30.9,9.9l13.2,74.7l0,0
			l3.2,18.3c0.3,1.8,2,2.9,3.8,2.6l1.5-0.3c1.8-0.3,2.9-2,2.6-3.8l-3.6-20.7c5.2-2.1,13-4.7,23.5-6.2c20.5-2.9,29,1.7,49.6-0.6
			c18-2.1,30.3-7,30.3-7L178.4,143.6z M107,198.1c-17,2.5-22.4,6.5-25.1,8l-3.3-17.9c1.5-0.9,6.5-5.5,24.6-8.2
			c9.4-1.4,14.4-1,21.3-0.4l3.7,18C121.6,197.1,116.4,196.8,107,198.1z M128.4,157.3c7.2,0.6,12.3,1,22.3-0.3
			c15.2-1.8,22.7-5,22.7-5l3.1,18.7c-2.2,0.9-8.4,3.4-23.7,5.2c-9.8,1.2-21-0.1-21.3-0.1L128.4,157.3z M139.4,219.3l-3.1-18.5
			c0.1,0,10.8,0.9,20.8-0.3c3-0.4,5.8-0.8,8.4-1.2c10.2-1.8,13.1-3.1,15.4-3.9l3.1,18c0,0-5,4.1-22.7,6.1
			C151.3,220.6,146.6,219.9,139.4,219.3z"/>
	</g>
	<g class="st3">
		<path class="st6" d="M178.1,185.5c-12,1.4-24.8,0.4-25,0.4l6.6,37.3c8.7,0.7,14.3,1.6,26.3,0.2c21.2-2.5,27.2-7.4,27.2-7.4
			l-6.6-36.6c-2.8,1-6.3,2.6-18.5,4.7C185.1,184.6,181.7,185.1,178.1,185.5z"/>
		<path class="st6" d="M110.6,149.4c-21.8,3.2-27.8,8.7-29.6,9.8l7,36.9c3.2-1.9,9.7-6.7,30.1-9.7c11.3-1.6,17.6-1.2,25.6-0.6
			l-7.5-36.9C127.9,148.2,121.9,147.7,110.6,149.4z"/>
		<path class="st6" d="M392,191.2L291.5,90.6c-0.9-0.9-2-1.7-3.1-2.3c-2-1.3-4.3-2.1-6.9-2.1H17.8c-6.9,0-12.5,5.6-12.5,12.5v202.5
			c0,6.9,5.6,12.5,12.5,12.5h263.6c2.5,0,4.9-0.8,6.9-2.1c1.1-0.6,2.2-1.3,3.1-2.3L392,208.9C396.9,204,396.9,196.1,392,191.2z
			 M190.6,233.5c-27.7,3.2-39.1-3.1-66.7,0.9c-14.1,2-20.6,4.5-27.6,7.3l4.9,27.8c0.4,2.4-1.2,4.6-3.5,5l-6,1.3
			c-2.4,0.4-4.6-1.2-5-3.5l-4.4-24.6L64.5,147.3c0,0,14-9.4,41.6-13.3c27.6-3.9,39.1,2.8,66.8-0.4c24.1-2.8,40.8-9.5,40.8-9.5
			l17.7,100C231.4,224.1,214.7,230.8,190.6,233.5z"/>
	</g>
</g>
<g id="BACKUP" class="st3">
	<g id="Backup">
		<g class="st8">
			<path class="st9" d="M-1162.8-180.1c0,0,26.5-11.7,83-9.9s78.1,24,134.4,27.3c49.3,2.9,78.9-8.4,78.9-8.4V2.2
				c0,0-29.6,11.3-78.9,8.4c-56.4-3.3-78-25.5-134.4-27.3c-56.5-1.8-83,9.9-83,9.9V-180.1z"/>
			<path class="st10" d="M-864.5-127.8c0,0-30,11.3-79.9,8.4c-57.1-3.3-78.9-25.5-136.1-27.3s-84,9.9-84,9.9"/>
			<path class="st10" d="M-864.5-84.4c0,0-30,11.3-79.9,8.4c-57.1-3.3-78.9-25.5-136.1-27.3s-84,9.9-84,9.9"/>
			<path class="st10" d="M-864.5-41.1c0,0-30,11.3-79.9,8.4c-57.1-3.3-78.9-25.5-136.1-27.3s-84,9.9-84,9.9"/>
			<line class="st10" x1="-1162.8" y1="-190.2" x2="-1162.8" y2="11.1"/>
			<line class="st10" x1="-866.5" y1="-190.2" x2="-866.5" y2="11.1"/>
			<line class="st10" x1="-1064" y1="-190.2" x2="-1064" y2="11.1"/>
			<line class="st10" x1="-965.3" y1="-190.2" x2="-965.3" y2="11.1"/>
		</g>
		<g class="st8">
			<g>
				<path class="st9" d="M-1071.4,208.2c0.3,0.1,0.7,0.2,1,0.3c18.9,5.9,38.4,12,65.9,13.6c43.4,2.5,71.8-5.9,77.7-7.8v-41.4
					c0,0-29.6,11.3-78.9,8.4c-27.5-1.6-46.7-7.7-65.7-13.8V208.2z"/>
				<path class="st9" d="M-1140.7,194.8c26.7,0.8,46.1,6.2,64.3,11.8V166c-18.3-5.8-37.2-11.1-63.7-12c-56.5-1.8-83,9.9-83,9.9v40
					C-1215,201.1-1188.4,193.3-1140.7,194.8z"/>
				<path class="st9" d="M-1004.8,270.5c-27.9-1.6-47.6-7.8-66.7-13.7v38.1c0.3,0.1,0.7,0.2,1,0.3c18.9,5.9,38.4,12,65.9,13.6
					c43.4,2.5,71.8-5.9,77.7-7.8v-38.1c-7.5,2.4-29,8-61.3,8C-993.4,270.9-999,270.8-1004.8,270.5z"/>
				<path class="st9" d="M-1004.8,227.1c-27.9-1.6-47.6-7.8-66.7-13.7v38.1c0.3,0.1,0.7,0.2,1,0.3c18.9,5.9,38.4,12,65.9,13.6
					c43.4,2.5,71.8-5.9,77.7-7.8v-38.1c-7.5,2.4-29,8-61.3,8C-993.4,227.6-999,227.5-1004.8,227.1z"/>
				<path class="st9" d="M-1140.7,238.2c26.7,0.8,46.1,6.2,64.3,11.8v-38.1c-18.9-5.9-37.6-11.2-64.4-12c-51-1.6-77.8,7.7-82.2,9.4
					v38C-1215,244.4-1188.4,236.7-1140.7,238.2z"/>
				<path class="st9" d="M-1076.4,298.5c-18.9-5.9-37.6-11.2-64.4-12c-51-1.6-77.8,7.7-82.2,9.4v41.3c0,0,26.5-11.7,83-9.9
					c26.5,0.8,45.4,6.2,63.7,12L-1076.4,298.5L-1076.4,298.5z"/>
				<path class="st9" d="M-988.2,314.3c-5.3,0-10.8-0.2-16.6-0.5c-27.9-1.6-47.6-7.8-66.7-13.7v40.8c19,6,38.3,12.1,65.7,13.8
					c49.3,2.9,78.9-8.4,78.9-8.4v-40C-934.3,308.6-955.8,314.3-988.2,314.3z"/>
				<path class="st9" d="M-1140.7,281.5c26.7,0.8,46.1,6.2,64.3,11.8v-38.1c-18.9-5.9-37.6-11.2-64.4-12c-51-1.6-77.8,7.7-82.2,9.4
					v38C-1215,287.7-1188.4,280-1140.7,281.5z"/>
			</g>
			<path class="st9" d="M-1213.1,407.6L-1213.1,407.6c-5.5,0-10-4.5-10-10v-68.1c0-5.5,4.5-10,10-10l0,0c5.5,0,10,4.5,10,10v68.1
				C-1203,403.1-1207.5,407.6-1213.1,407.6z"/>
		</g>
		<g class="st8">
			<path class="st9" d="M-1162.8,105.2c0,0,26.5-11.7,83-9.9c56.5,1.8,78.1,24,134.4,27.3c49.3,2.9,78.9-8.4,78.9-8.4v173.3
				c0,0-29.6,11.3-78.9,8.4c-56.4-3.3-78-25.5-134.4-27.3c-56.5-1.8-83,9.9-83,9.9V105.2z"/>
			<path class="st10" d="M-864.5,114.2c0,0-30,11.3-79.9,8.4c-57.1-3.3-78.9-25.5-136.1-27.3c-57.2-1.8-84,9.9-84,9.9"/>
			<path class="st10" d="M-864.5,287.5c0,0-30,11.3-79.9,8.4c-57.1-3.3-78.9-25.5-136.1-27.3s-84,9.9-84,9.9"/>
			<line class="st10" x1="-1162.8" y1="95.1" x2="-1162.8" y2="296.3"/>
			<line class="st10" x1="-866.5" y1="95.1" x2="-866.5" y2="296.3"/>
			<line class="st10" x1="-1014.6" y1="95.1" x2="-1014.6" y2="296.3"/>
			<path class="st10" d="M-864.5,171.9c0,0-30,11.3-79.9,8.4c-57.1-3.3-78.9-25.5-136.1-27.3s-84,9.9-84,9.9"/>
			<path class="st10" d="M-864.5,229.7c0,0-30,11.3-79.9,8.4c-57.1-3.3-78.9-25.5-136.1-27.3s-84,9.9-84,9.9"/>
		</g>
		<g class="st8">
			<path d="M-672.8-263.4c0,0,31.9-12.1,89.4-10.2c57.4,1.9,79.4,24.7,136.7,28.1c50.1,3,85.2-8.6,85.2-8.6v188.3
				c0,0-35.1,11.6-85.2,8.6C-504-60.7-526-83.5-583.4-85.3c-57.4-1.9-89.4,10.2-89.4,10.2L-672.8-263.4L-672.8-263.4z"/>
			<g>
				<path d="M-659.6-0.7h-4.2c-5,0-9-4-9-9v-82.1c0-5,4-9,9-9h4.2c5,0,9,4,9,9v82.1C-650.6-4.8-654.6-0.7-659.6-0.7z"/>
				<g>
					<path class="st11" d="M-446.7-183.1c38.9,2.3,65.8-4.3,75.2-7v-52.5c-9.2,2.6-29.6,7.3-58.8,7.3c-5.3,0-10.8-0.2-16.6-0.5
						c-28.1-1.6-47.9-7.9-67.1-13.9c-0.2-0.1-0.4-0.1-0.6-0.2v52.5c0.7,0.2,1.4,0.4,2.1,0.6C-493.7-190.9-474.2-184.7-446.7-183.1z"
						/>
					<path class="st11" d="M-514.7-81.9c0.7,0.2,1.4,0.4,2.1,0.6c18.9,5.9,38.4,12,65.9,13.6c39,2.3,65.8-4.3,75.2-7v-52.5
						c-9.2,2.6-29.6,7.3-58.8,7.3c-5.3,0-10.8-0.2-16.6-0.5c-28.1-1.6-47.9-7.9-67.1-13.9c-0.2-0.1-0.4-0.1-0.6-0.2L-514.7-81.9
						L-514.7-81.9z"/>
					<path d="M-514.7-139.7c0.7,0.2,1.4,0.4,2.1,0.6c18.9,5.9,38.4,12,65.9,13.6c38.9,2.3,65.8-4.3,75.2-7V-185
						c-9.2,2.6-29.6,7.3-58.8,7.3c-5.3,0-10.8-0.2-16.6-0.5c-28.1-1.6-47.9-7.9-67.1-13.9c-0.2-0.1-0.4-0.1-0.6-0.2L-514.7-139.7
						L-514.7-139.7z"/>
					<path d="M-519.7-251.5c-18.6-5.8-37-10.9-63.4-11.7c-45-1.4-71.1,5.7-79.7,8.5v52.5c10.3-3.3,36.3-9.6,79.9-8.3
						c26.2,0.8,45.4,6,63.2,11.5V-251.5z"/>
					<path d="M-662.8-139.1v52.5c10.3-3.3,36.3-9.6,79.9-8.3c26.2,0.8,45.4,6,63.2,11.5V-136c-18.6-5.8-37-10.9-63.4-11.7
						C-628.1-149.1-654.2-142-662.8-139.1z"/>
					<path class="st11" d="M-519.7-193.7c-18.6-5.8-37-10.9-63.4-11.7c-45-1.4-71.1,5.7-79.7,8.5v52.5c10.3-3.3,36.3-9.6,79.9-8.3
						c26.2,0.8,45.4,6,63.2,11.5V-193.7z"/>
				</g>
			</g>
		</g>
		<g class="st8">
			<path class="st9" d="M-1162.8,516.9c0,0,26.5-11.7,83-9.9c56.5,1.8,78.1,24,134.4,27.3c49.3,2.9,78.9-8.4,78.9-8.4v191.7
				c0,0-29.6,11.3-78.9,8.4c-56.4-3.3-78-25.5-134.4-27.3c-56.5-1.8-83,9.9-83,9.9V516.9z"/>
			<path class="st10" d="M-864.5,525.9c0,0-30,11.3-79.9,8.4c-57.1-3.3-78.9-25.5-136.1-27.3s-84,9.9-84,9.9"/>
			<path class="st10" d="M-864.5,717.6c0,0-30,11.3-79.9,8.4c-57.1-3.3-78.9-25.5-136.1-27.3s-84,9.9-84,9.9"/>
			<line class="st10" x1="-1162.8" y1="512.5" x2="-1162.8" y2="726.5"/>
			<line class="st10" x1="-866.5" y1="512.5" x2="-866.5" y2="726.5"/>
			<line class="st10" x1="-1014.6" y1="512.5" x2="-1014.6" y2="726.5"/>
			<path class="st10" d="M-864.5,589.8c0,0-30,11.3-79.9,8.4c-57.1-3.3-78.9-25.5-136.1-27.3s-84,9.9-84,9.9"/>
			<path class="st10" d="M-864.5,653.7c0,0-30,11.3-79.9,8.4c-57.1-3.3-78.9-25.5-136.1-27.3s-84,9.9-84,9.9"/>
		</g>
		<path class="st8" d="M-568.5,530.3c0,0,31.9-14.1,89.4-12.2c57.4,1.9,78.4,19.7,135.7,23.1c50.1,3,86.2-4.6,86.2-4.6V746
			c0,0-36.1,7.6-86.2,4.6c-57.3-3.4-78.3-20.2-135.7-22.1s-89.4,12.2-89.4,12.2L-568.5,530.3L-568.5,530.3z"/>
		<g class="st8">
			<path class="st9" d="M-561.2,536.9c0,0,26.5-11.7,83-9.9s78.1,20,134.4,23.3c49.3,2.9,78.9-4.4,78.9-4.4v191.7
				c0,0-29.6,7.3-78.9,4.4c-56.4-3.3-78-21.5-134.4-23.3c-56.5-1.8-83,9.9-83,9.9V536.9z"/>
			<line class="st10" x1="-413" y1="532.5" x2="-413" y2="746.4"/>
			<path class="st10" d="M-262.9,609.8c0,0-30,7.3-79.9,4.4c-57.1-3.3-78.9-21.5-136.1-23.3s-84,9.9-84,9.9"/>
			<path class="st10" d="M-262.9,673.7c0,0-30,7.3-79.9,4.4c-57.1-3.3-78.9-21.5-136.1-23.3s-84,9.9-84,9.9"/>
		</g>
		<g id="Start" class="st8">
			<circle class="st11" cx="200" cy="200" r="100"/>
			<path d="M200,123c42.5,0,77,34.5,77,77s-34.5,77-77,77s-77-34.5-77-77S157.5,123,200,123 M200,100c-55.2,0-100,44.8-100,100
				s44.8,100,100,100s100-44.8,100-100S255.2,100,200,100L200,100z"/>
		</g>
		<g class="st8">
			<path class="st5" d="M825.1,363.5l-4.2,0.7c-4.9,0.9-9.5-2.4-10.4-7.3l-14.3-80.8c-0.9-4.9,2.4-9.5,7.3-10.4l4.2-0.7
				c4.9-0.9,9.5,2.4,10.4,7.3l14.3,80.8C833.2,358,830,362.6,825.1,363.5z"/>
			<path class="st5" d="M765,98.9c0,0,29-19.4,85.9-27.5s80.6,5.7,137.7-0.8c49.8-5.7,84.1-19.5,84.1-19.5l36.4,206.2
				c0,0-34.3,13.8-84.1,19.5c-57,6.6-80.6-6.3-137.5,1.8s-85.9,27.5-85.9,27.5L765,98.9z"/>
			<path class="st11" d="M874.5,203.4c25.9-3.7,45.6-2.8,64-1.4l-10.2-57.8c-19.1-1.5-38-2.5-64.2,1.2
				c-50.5,7.3-75.3,21.1-79.4,23.6l10.2,57.7C802.5,222.5,827.3,210.2,874.5,203.4z"/>
			<path class="st11" d="M932.6,139.6c0.8,0.1,1.6,0.1,2.4,0.2c19.4,1.6,39.4,3.3,66.7,0.1c42.6-5,69.6-14.9,75.8-17.4l-10.7-60.8
				c0,0-27.9,12.3-76.9,18c-27.8,3.2-47.9,1.4-67.9-0.3L932.6,139.6z"/>
			<path class="st11" d="M1036.6,204.3c-7.1,1.3-14.9,2.4-23.3,3.4c-27.7,3.2-48.1,1.6-67.7-0.1c-0.4,0-0.7-0.1-1.1-0.1l10.7,60.4
				c20,1.7,40,3.6,67.9,0.3c49-5.7,76.9-18,76.9-18l-10.6-60C1083.1,192.8,1064.9,199.3,1036.6,204.3z"/>
		</g>
	</g>
	<g id="J2LLxC.tif">
		
			<image style="display:inline;overflow:visible;" width="759" height="463" id="Layer_0" xlink:href="9D77C365D8A58755.png"  transform="matrix(1 0 0 1 -511.5875 -472.1126)">
		</image>
	</g>
</g>
</svg>
