<?xml version="1.0" encoding="utf-8"?>
<!-- Generator: Adobe Illustrator 21.1.0, SVG Export Plug-In . SVG Version: 6.00 Build 0)  -->
<svg version="1.1" id="Ebene_1" xmlns="http://www.w3.org/2000/svg" xmlns:xlink="http://www.w3.org/1999/xlink" x="0px" y="0px"
	 viewBox="0 0 300 300" style="enable-background:new 0 0 300 300;" xml:space="preserve">
<style type="text/css">
	.st0{fill-rule:evenodd;clip-rule:evenodd;fill:#1D1D1B;}
</style>
<g>
	<path class="st0" d="M38.5,223.7L57,218v-26.8l-7.3-4.6v-32.7l7.5-5.9v-28.2h13.2l0.2,44.2h44.7l-4.3-14.4H90.7V64.4h28.8
		c8.9,0.6,30,15.9,10.5,40.6c6.3,3,19.5,30.2-7.1,43l4.7,15.6l5.3,0.2l14.6-36.6l12.8,0.2l11.3,36.1h5.5l5.7-14h-11.2v-85l29.6,0.2
		c29.2,4.9,22.3,50-5.1,50.2l-12.2,0.2v31.7l7.7-17.4h13l-14.6,34.1h35.7v-44l13.4,0.2v30.9l7.1,4.7v32.1l-7.4,4.7v24.9l22.6,6.1
		c13.8-21.1,21.9-46.2,21.9-73.3c0-73.7-60.1-133.8-133.8-133.8C76.1,15.8,16,75.9,16,149.6C16,177.1,24.3,202.6,38.5,223.7
		L38.5,223.7z M150,3.5c80.4,0,146.2,65.8,146.2,146.4c0,80.4-65.8,146.2-146.2,146.2C69.4,296,3.6,230.2,3.6,149.8
		C3.6,69.2,69.4,3.5,150,3.5L150,3.5z M254.1,233.1c-79.2-24.8-165.3-14.6-208.1,0.6c24.4,30.3,61.9,49.8,103.7,49.8
		C191.8,283.4,229.6,263.7,254.1,233.1L254.1,233.1z M198.3,102.1h-14V77.4h13.8C212.1,77.4,209.4,99.9,198.3,102.1L198.3,102.1z
		 M115.7,98.7h-12V77.1h13.2C130.1,77.1,126.4,97.9,115.7,98.7L115.7,98.7z M119.1,135.6l-1.6-5.7h-12.4l1.8,6.7h-3.6v-24.4h13.6
		C130.5,115.9,127.8,132.6,119.1,135.6L119.1,135.6z M159.3,163.9h-13.6l7.5-18.7L159.3,163.9L159.3,163.9z M123.4,189.2h12.4
		l4.5-12h23.2l3.6,12.2h12.2l5-12.4h41.4v37.2c0,0-68.6-19.1-155.3,0.8v-37h49.3L123.4,189.2L123.4,189.2z"/>
</g>
</svg>
